// Jest Snapshot v1, https://goo.gl/fbAQLP

exports[`docs/rules/aria-label-misuse.md inline validation: correct 1`] = `Array []`;

exports[`docs/rules/aria-label-misuse.md inline validation: incorrect 1`] = `
Array [
  Object {
    "errorCount": 1,
    "filePath": "inline",
    "messages": Array [
      Object {
        "column": 22,
        "context": undefined,
        "line": 1,
        "message": "\\"aria-label\\" cannot be used on this element",
        "offset": 21,
        "ruleId": "aria-label-misuse",
        "ruleUrl": "https://html-validate.org/rules/aria-label-misuse.html",
        "selector": "input",
        "severity": 2,
        "size": 10,
      },
    ],
    "source": "<input type=\\"hidden\\" aria-label=\\"foobar\\">",
    "warningCount": 0,
  },
]
`;
