// Jest Snapshot v1, https://goo.gl/fbAQLP

exports[`docs/rules/attribute-allowed-values.md inline validation: correct 1`] = `Array []`;

exports[`docs/rules/attribute-allowed-values.md inline validation: incorrect 1`] = `
Array [
  Object {
    "errorCount": 2,
    "filePath": "inline",
    "messages": Array [
      Object {
        "column": 4,
        "context": Object {
          "allowed": Object {
            "enum": Array [
              /\\^\\.\\*\\$/,
            ],
          },
          "attribute": "href",
          "element": "a",
          "value": "",
        },
        "line": 1,
        "message": "Attribute \\"href\\" is missing value",
        "offset": 3,
        "ruleId": "attribute-allowed-values",
        "ruleUrl": "https://html-validate.org/rules/attribute-allowed-values.html",
        "selector": "a",
        "severity": 2,
        "size": 4,
      },
      Object {
        "column": 14,
        "context": Object {
          "allowed": Object {
            "enum": Array [
              "button",
              "checkbox",
              "color",
              "date",
              "datetime-local",
              "email",
              "file",
              "hidden",
              "image",
              "month",
              "number",
              "password",
              "radio",
              "range",
              "reset",
              "search",
              "submit",
              "tel",
              "text",
              "time",
              "url",
              "week",
            ],
            "required": true,
          },
          "attribute": "type",
          "element": "input",
          "value": "foobar",
        },
        "line": 2,
        "message": "Attribute \\"type\\" has invalid value \\"foobar\\"",
        "offset": 29,
        "ruleId": "attribute-allowed-values",
        "ruleUrl": "https://html-validate.org/rules/attribute-allowed-values.html",
        "selector": "input",
        "severity": 2,
        "size": 6,
      },
    ],
    "source": "<a href>...</a>
<input type=\\"foobar\\">",
    "warningCount": 0,
  },
]
`;
