// Jest Snapshot v1, https://goo.gl/fbAQLP

exports[`docs/rules/element-permitted-occurrences.md inline validation: correct 1`] = `Array []`;

exports[`docs/rules/element-permitted-occurrences.md inline validation: incorrect 1`] = `
Array [
  Object {
    "errorCount": 1,
    "filePath": "inline",
    "messages": Array [
      Object {
        "column": 6,
        "context": undefined,
        "line": 4,
        "message": "Element <tfoot> can only appear once under <table>",
        "offset": 77,
        "ruleId": "element-permitted-occurrences",
        "ruleUrl": "https://html-validate.org/rules/element-permitted-occurrences.html",
        "selector": "table > tfoot:nth-child(2)",
        "severity": 2,
        "size": 5,
      },
    ],
    "source": "<!-- table footer can only be used once -->
<table>
    <tfoot></tfoot>
    <tfoot></tfoot>
</div>",
    "warningCount": 0,
  },
]
`;
